Drug,Patients,DrugName
100,16-00627,Trametinib (GSK1120212)
93,15-00900,Selumetinib (AZD6244)
24,13-00098,Doramapimod (BIRB 796)
24,15-00057,Doramapimod (BIRB 796)
22,16-00981,DBZ
3,14-00581,AT7519
62,13-00450,NF-kB Activation Inhibitor
110,13-00396,YM-155
81,16-00525,Rapamycin
100,16-00118,Trametinib (GSK1120212)
56,16-01055,MK-2206
12,14-00041,Bortezomib (Velcade)
62,15-00571,NF-kB Activation Inhibitor
81,13-00615,Rapamycin
81,15-00650,Rapamycin
100,15-00702,Trametinib (GSK1120212)
93,15-00175,Selumetinib (AZD6244)
93,15-00148,Selumetinib (AZD6244)
100,16-01227,Trametinib (GSK1120212)
100,14-00798,Trametinib (GSK1120212)
93,15-00578,Selumetinib (AZD6244)
81,13-00497,Rapamycin
56,16-01223,MK-2206
55,16-00822,MGCD-265
55,17-00096,MGCD-265
81,16-01262,Rapamycin
62,16-00519,NF-kB Activation Inhibitor
62,15-00975,NF-kB Activation Inhibitor
62,16-00836,NF-kB Activation Inhibitor
53,13-00165,Linifanib (ABT-869)
62,15-00967,NF-kB Activation Inhibitor
109,16-00220,XAV-939
100,13-00545,Trametinib (GSK1120212)
62,15-00786,NF-kB Activation Inhibitor
79,15-00909,Quizartinib (AC220)
62,13-00331,NF-kB Activation Inhibitor
62,15-00615,NF-kB Activation Inhibitor
75,14-00800,Panobinostat
62,17-00093,NF-kB Activation Inhibitor
81,15-00633,Rapamycin
62,15-00777,NF-kB Activation Inhibitor
62,16-00269,NF-kB Activation Inhibitor
75,13-00602,Panobinostat
62,16-00292,NF-kB Activation Inhibitor
81,13-00551,Rapamycin
100,16-00708,Trametinib (GSK1120212)
54,13-00157,Lovastatin
20,16-00410,Crenolanib
62,15-00764,NF-kB Activation Inhibitor
62,15-00279,NF-kB Activation Inhibitor
62,14-00045,NF-kB Activation Inhibitor
56,16-00315,MK-2206
109,15-00302,XAV-939
62,15-00167,NF-kB Activation Inhibitor
23,16-01270,Dasatinib
75,16-00595,Panobinostat
14,13-00513,CHIR-99021
56,16-01237,MK-2206
24,13-00186,Doramapimod (BIRB 796)
24,17-00094,Doramapimod (BIRB 796)
62,17-00033,NF-kB Activation Inhibitor
81,15-00903,Rapamycin
81,16-00702,Rapamycin
100,16-00627,Trametinib (GSK1120212)
93,15-00900,Selumetinib (AZD6244)
24,13-00098,Doramapimod (BIRB 796)
24,15-00057,Doramapimod (BIRB 796)
22,16-00981,DBZ
3,14-00581,AT7519
62,13-00450,NF-kB Activation Inhibitor
110,13-00396,YM-155
81,16-00525,Rapamycin
100,16-00118,Trametinib (GSK1120212)
56,16-01055,MK-2206
12,14-00041,Bortezomib (Velcade)
62,15-00571,NF-kB Activation Inhibitor
81,13-00615,Rapamycin
81,15-00650,Rapamycin
100,15-00702,Trametinib (GSK1120212)
93,15-00175,Selumetinib (AZD6244)
93,15-00148,Selumetinib (AZD6244)
100,16-01227,Trametinib (GSK1120212)
100,14-00798,Trametinib (GSK1120212)
93,15-00578,Selumetinib (AZD6244)
81,13-00497,Rapamycin
56,16-01223,MK-2206
55,16-00822,MGCD-265
55,17-00096,MGCD-265
81,16-01262,Rapamycin
62,16-00519,NF-kB Activation Inhibitor
62,15-00975,NF-kB Activation Inhibitor
62,16-00836,NF-kB Activation Inhibitor
53,13-00165,Linifanib (ABT-869)
62,15-00967,NF-kB Activation Inhibitor
109,16-00220,XAV-939
100,13-00545,Trametinib (GSK1120212)
62,15-00786,NF-kB Activation Inhibitor
79,15-00909,Quizartinib (AC220)
62,13-00331,NF-kB Activation Inhibitor
62,15-00615,NF-kB Activation Inhibitor
75,14-00800,Panobinostat
62,17-00093,NF-kB Activation Inhibitor
81,15-00633,Rapamycin
62,15-00777,NF-kB Activation Inhibitor
62,16-00269,NF-kB Activation Inhibitor
75,13-00602,Panobinostat
62,16-00292,NF-kB Activation Inhibitor
81,13-00551,Rapamycin
100,16-00708,Trametinib (GSK1120212)
54,13-00157,Lovastatin
20,16-00410,Crenolanib
62,15-00764,NF-kB Activation Inhibitor
62,15-00279,NF-kB Activation Inhibitor
62,14-00045,NF-kB Activation Inhibitor
56,16-00315,MK-2206
109,15-00302,XAV-939
62,15-00167,NF-kB Activation Inhibitor
23,16-01270,Dasatinib
75,16-00595,Panobinostat
14,13-00513,CHIR-99021
56,16-01237,MK-2206
24,13-00186,Doramapimod (BIRB 796)
24,17-00094,Doramapimod (BIRB 796)
62,17-00033,NF-kB Activation Inhibitor
81,15-00903,Rapamycin
81,16-00702,Rapamycin
100,16-00627,Trametinib (GSK1120212)
93,15-00900,Selumetinib (AZD6244)
24,13-00098,Doramapimod (BIRB 796)
24,15-00057,Doramapimod (BIRB 796)
22,16-00981,DBZ
3,14-00581,AT7519
62,13-00450,NF-kB Activation Inhibitor
110,13-00396,YM-155
81,16-00525,Rapamycin
100,16-00118,Trametinib (GSK1120212)
56,16-01055,MK-2206
12,14-00041,Bortezomib (Velcade)
62,15-00571,NF-kB Activation Inhibitor
81,13-00615,Rapamycin
81,15-00650,Rapamycin
100,15-00702,Trametinib (GSK1120212)
93,15-00175,Selumetinib (AZD6244)
93,15-00148,Selumetinib (AZD6244)
100,16-01227,Trametinib (GSK1120212)
100,14-00798,Trametinib (GSK1120212)
93,15-00578,Selumetinib (AZD6244)
81,13-00497,Rapamycin
56,16-01223,MK-2206
55,16-00822,MGCD-265
55,17-00096,MGCD-265
81,16-01262,Rapamycin
62,16-00519,NF-kB Activation Inhibitor
62,15-00975,NF-kB Activation Inhibitor
62,16-00836,NF-kB Activation Inhibitor
53,13-00165,Linifanib (ABT-869)
62,15-00967,NF-kB Activation Inhibitor
109,16-00220,XAV-939
100,13-00545,Trametinib (GSK1120212)
62,15-00786,NF-kB Activation Inhibitor
79,15-00909,Quizartinib (AC220)
62,13-00331,NF-kB Activation Inhibitor
62,15-00615,NF-kB Activation Inhibitor
75,14-00800,Panobinostat
62,17-00093,NF-kB Activation Inhibitor
81,15-00633,Rapamycin
62,15-00777,NF-kB Activation Inhibitor
62,16-00269,NF-kB Activation Inhibitor
75,13-00602,Panobinostat
62,16-00292,NF-kB Activation Inhibitor
81,13-00551,Rapamycin
100,16-00708,Trametinib (GSK1120212)
54,13-00157,Lovastatin
20,16-00410,Crenolanib
62,15-00764,NF-kB Activation Inhibitor
62,15-00279,NF-kB Activation Inhibitor
62,14-00045,NF-kB Activation Inhibitor
56,16-00315,MK-2206
109,15-00302,XAV-939
62,15-00167,NF-kB Activation Inhibitor
23,16-01270,Dasatinib
75,16-00595,Panobinostat
14,13-00513,CHIR-99021
56,16-01237,MK-2206
24,13-00186,Doramapimod (BIRB 796)
24,17-00094,Doramapimod (BIRB 796)
62,17-00033,NF-kB Activation Inhibitor
81,15-00903,Rapamycin
81,16-00702,Rapamycin
100,16-00627,Trametinib (GSK1120212)
93,15-00900,Selumetinib (AZD6244)
24,13-00098,Doramapimod (BIRB 796)
24,15-00057,Doramapimod (BIRB 796)
22,16-00981,DBZ
3,14-00581,AT7519
62,13-00450,NF-kB Activation Inhibitor
110,13-00396,YM-155
81,16-00525,Rapamycin
100,16-00118,Trametinib (GSK1120212)
56,16-01055,MK-2206
12,14-00041,Bortezomib (Velcade)
62,15-00571,NF-kB Activation Inhibitor
81,13-00615,Rapamycin
81,15-00650,Rapamycin
100,15-00702,Trametinib (GSK1120212)
93,15-00175,Selumetinib (AZD6244)
93,15-00148,Selumetinib (AZD6244)
100,16-01227,Trametinib (GSK1120212)
100,14-00798,Trametinib (GSK1120212)
93,15-00578,Selumetinib (AZD6244)
81,13-00497,Rapamycin
56,16-01223,MK-2206
55,16-00822,MGCD-265
55,17-00096,MGCD-265
81,16-01262,Rapamycin
62,16-00519,NF-kB Activation Inhibitor
62,15-00975,NF-kB Activation Inhibitor
62,16-00836,NF-kB Activation Inhibitor
53,13-00165,Linifanib (ABT-869)
62,15-00967,NF-kB Activation Inhibitor
109,16-00220,XAV-939
100,13-00545,Trametinib (GSK1120212)
62,15-00786,NF-kB Activation Inhibitor
79,15-00909,Quizartinib (AC220)
62,13-00331,NF-kB Activation Inhibitor
62,15-00615,NF-kB Activation Inhibitor
75,14-00800,Panobinostat
62,17-00093,NF-kB Activation Inhibitor
81,15-00633,Rapamycin
62,15-00777,NF-kB Activation Inhibitor
62,16-00269,NF-kB Activation Inhibitor
75,13-00602,Panobinostat
62,16-00292,NF-kB Activation Inhibitor
81,13-00551,Rapamycin
100,16-00708,Trametinib (GSK1120212)
54,13-00157,Lovastatin
20,16-00410,Crenolanib
62,15-00764,NF-kB Activation Inhibitor
62,15-00279,NF-kB Activation Inhibitor
62,14-00045,NF-kB Activation Inhibitor
56,16-00315,MK-2206
109,15-00302,XAV-939
62,15-00167,NF-kB Activation Inhibitor
23,16-01270,Dasatinib
75,16-00595,Panobinostat
14,13-00513,CHIR-99021
56,16-01237,MK-2206
24,13-00186,Doramapimod (BIRB 796)
24,17-00094,Doramapimod (BIRB 796)
62,17-00033,NF-kB Activation Inhibitor
81,15-00903,Rapamycin
81,16-00702,Rapamycin
100,16-00627,Trametinib (GSK1120212)
93,15-00900,Selumetinib (AZD6244)
24,13-00098,Doramapimod (BIRB 796)
24,15-00057,Doramapimod (BIRB 796)
22,16-00981,DBZ
3,14-00581,AT7519
62,13-00450,NF-kB Activation Inhibitor
110,13-00396,YM-155
81,16-00525,Rapamycin
100,16-00118,Trametinib (GSK1120212)
56,16-01055,MK-2206
12,14-00041,Bortezomib (Velcade)
62,15-00571,NF-kB Activation Inhibitor
81,13-00615,Rapamycin
81,15-00650,Rapamycin
100,15-00702,Trametinib (GSK1120212)
93,15-00175,Selumetinib (AZD6244)
93,15-00148,Selumetinib (AZD6244)
100,16-01227,Trametinib (GSK1120212)
100,14-00798,Trametinib (GSK1120212)
93,15-00578,Selumetinib (AZD6244)
81,13-00497,Rapamycin
56,16-01223,MK-2206
55,16-00822,MGCD-265
55,17-00096,MGCD-265
81,16-01262,Rapamycin
62,16-00519,NF-kB Activation Inhibitor
62,15-00975,NF-kB Activation Inhibitor
62,16-00836,NF-kB Activation Inhibitor
53,13-00165,Linifanib (ABT-869)
62,15-00967,NF-kB Activation Inhibitor
109,16-00220,XAV-939
100,13-00545,Trametinib (GSK1120212)
62,15-00786,NF-kB Activation Inhibitor
79,15-00909,Quizartinib (AC220)
62,13-00331,NF-kB Activation Inhibitor
62,15-00615,NF-kB Activation Inhibitor
75,14-00800,Panobinostat
62,17-00093,NF-kB Activation Inhibitor
81,15-00633,Rapamycin
62,15-00777,NF-kB Activation Inhibitor
62,16-00269,NF-kB Activation Inhibitor
75,13-00602,Panobinostat
62,16-00292,NF-kB Activation Inhibitor
81,13-00551,Rapamycin
100,16-00708,Trametinib (GSK1120212)
54,13-00157,Lovastatin
20,16-00410,Crenolanib
62,15-00764,NF-kB Activation Inhibitor
62,15-00279,NF-kB Activation Inhibitor
62,14-00045,NF-kB Activation Inhibitor
56,16-00315,MK-2206
109,15-00302,XAV-939
62,15-00167,NF-kB Activation Inhibitor
23,16-01270,Dasatinib
75,16-00595,Panobinostat
14,13-00513,CHIR-99021
56,16-01237,MK-2206
24,13-00186,Doramapimod (BIRB 796)
24,17-00094,Doramapimod (BIRB 796)
62,17-00033,NF-kB Activation Inhibitor
81,15-00903,Rapamycin
81,16-00702,Rapamycin
